<!--?xml version="1.0" standalone="no"?-->

<svg version="1.0" xmlns="http://www.w3.org/2000/svg" width="300.000000pt" height="300.000000pt" viewBox="0 0 300.000000 300.000000" preserveAspectRatio="xMidYMid meet">
<g transform="translate(0.000000,300.000000) scale(0.100000,-0.100000)" fill="#614A25" stroke="none">
<path class="node" id="node1" d="M1453 2972 c-82 -30 -84 -33 -57 -123 18 -61 62 -154 123 -257 23
-39 41 -73 41 -76 0 -18 -24 4 -89 83 -75 92 -139 151 -164 151 -25 0 -92 -76
-127 -144 -18 -37 -31 -68 -29 -69 2 -2 47 -25 99 -51 84 -41 220 -143 220
-165 0 -4 -51 -40 -112 -81 -80 -53 -155 -115 -258 -215 -80 -78 -164 -156
-187 -174 -24 -18 -43 -41 -43 -52 0 -25 -36 -98 -92 -184 -41 -64 -126 -245
-143 -305 -16 -55 -24 -52 -102 36 -41 46 -77 84 -79 84 -2 0 -18 -12 -36 -27
-17 -16 -45 -39 -61 -54 l-29 -25 81 -69 c44 -37 81 -72 81 -77 0 -11 5 -12
-78 22 -83 34 -183 62 -192 54 -3 -3 -5 -60 -5 -127 l0 -122 136 4 c88 2 139
0 143 -7 3 -6 -31 -36 -76 -68 -94 -65 -98 -70 -98 -103 0 -27 80 -111 105
-111 8 0 27 17 42 37 15 21 30 40 33 43 3 3 17 21 30 40 l25 35 11 -70 c16
-98 46 -200 78 -268 28 -59 132 -198 160 -214 8 -4 29 -22 48 -38 53 -48 125
-93 233 -145 119 -57 198 -83 342 -112 156 -32 442 -32 592 0 359 76 608 260
711 524 92 234 76 587 -40 913 -147 416 -413 761 -688 895 l-84 41 7 87 c3 48
10 114 15 147 5 33 11 108 15 168 l7 107 -34 -1 c-38 0 -195 -33 -204 -42 -6
-6 -2 -35 26 -202 12 -69 12 -157 1 -150 -13 7 -53 133 -95 296 -47 183 -50
189 -95 188 -20 0 -69 -13 -108 -27z m487 -676 c94 -33 193 -99 295 -197 83
-80 110 -118 60 -85 -59 39 -135 58 -211 54 -83 -4 -94 -12 -94 -66 0 -45 41
-86 77 -77 24 6 25 4 19 -26 -3 -17 -6 -40 -6 -50 0 -28 -18 -23 -80 20 -84
59 -168 91 -239 91 -54 0 -63 -3 -90 -32 -66 -71 -208 -385 -266 -592 -30
-107 -35 -140 -35 -230 0 -123 20 -210 59 -256 57 -67 402 -120 586 -90 139
22 217 73 313 200 38 52 42 63 52 149 6 52 8 97 4 100 -3 3 -22 11 -42 16
l-36 10 -18 106 c-10 59 -34 152 -53 207 -19 56 -35 104 -35 108 0 12 108 -6
167 -27 l57 -22 28 32 c21 23 28 42 28 72 0 22 4 38 9 34 14 -8 58 -90 92
-170 17 -38 35 -79 40 -90 14 -28 37 -113 67 -240 22 -95 25 -135 26 -290 1
-159 -2 -190 -22 -265 -38 -136 -96 -244 -177 -326 -116 -117 -217 -176 -388
-224 -336 -96 -642 -77 -947 57 -296 131 -447 297 -516 567 -32 122 -33 304
-4 421 29 115 96 289 143 370 49 86 119 184 131 185 4 0 5 -19 2 -42 -6 -40
-3 -47 32 -88 l39 -44 92 23 c62 16 105 22 134 18 41 -6 46 -4 84 36 68 71 73
83 73 172 0 84 9 105 42 105 16 0 18 6 13 38 -15 92 -7 85 -93 79 -72 -5 -133
-24 -205 -63 -59 -33 -34 -3 65 77 167 134 294 209 413 244 33 9 65 19 70 20
6 2 47 4 93 4 63 1 99 -5 152 -23z m293 -362 c80 -34 196 -112 210 -141 11
-25 -2 -84 -26 -115 -12 -15 -18 -15 -67 -2 -30 8 -84 14 -121 14 -89 0 -103
15 -107 119 -4 78 14 151 38 151 6 0 39 -12 73 -26z m-877 -48 c7 -29 -10
-126 -30 -163 -8 -16 -26 -41 -40 -56 -21 -23 -32 -27 -54 -23 -15 4 -67 -1
-116 -9 -101 -18 -106 -16 -131 49 -14 35 -14 47 -3 81 11 33 23 45 66 68 55
30 215 75 269 76 26 1 34 -4 39 -23z m495 8 c78 -23 161 -77 218 -141 89 -99
163 -283 177 -441 l7 -69 -104 -6 c-57 -3 -151 -15 -209 -26 -58 -10 -125 -22
-150 -25 -25 -4 -65 -10 -90 -14 -56 -9 -249 -9 -271 0 -15 6 -16 13 -2 84 29
155 148 452 237 592 40 64 86 76 187 46z m496 -729 c9 -3 8 -17 -3 -57 -23
-79 -62 -143 -114 -192 -118 -110 -276 -139 -535 -96 -144 23 -205 43 -235 75
-29 31 -24 38 83 103 125 76 203 107 352 143 116 27 396 42 452 24z m-657 -39
c0 -2 -59 -36 -132 -75 -97 -52 -134 -68 -140 -58 -5 6 -7 37 -6 67 l3 55 105
6 c58 3 120 6 138 7 17 1 32 0 32 -2z"></path>
<path class="node" id="node2" d="M2294 1812 c-29 -20 -20 -84 13 -97 21 -8 67 17 71 38 8 43 -49 83
-84 59z"></path>
<path class="node" id="node3" d="M1211 1796 c-7 -8 -11 -27 -9 -43 3 -25 7 -28 43 -28 34 0 41 4 43
22 7 51 -47 85 -77 49z"></path>
</g>
<g transform="translate(0.000000,300.000000) scale(0.100000,-0.100000)" fill="#E0DBA0" stroke="none">


<path class="node" id="node6" d="M1695 2315 c-5 -1 -37 -11 -70 -20 -119 -35 -246 -110 -413 -244 -99
-80 -124 -110 -65 -77 72 39 133 58 205 63 86 6 78 13 93 -79 5 -32 3 -38 -13
-38 -33 0 -42 -21 -42 -105 0 -89 -5 -101 -73 -172 -38 -40 -43 -42 -84 -36
-29 4 -72 -2 -134 -18 l-92 -23 -39 44 c-35 41 -38 48 -32 88 3 23 2 42 -2 42
-12 -1 -82 -99 -131 -185 -47 -81 -114 -255 -143 -370 -29 -117 -28 -299 4
-421 69 -270 220 -436 516 -567 305 -134 611 -153 947 -57 171 48 272 107 388
224 81 82 139 190 177 326 20 75 23 106 22 265 -1 155 -4 195 -26 290 -30 127
-53 212 -67 240 -5 11 -23 52 -40 90 -34 80 -78 162 -92 170 -5 4 -9 -12 -9
-34 0 -30 -7 -49 -28 -72 l-28 -32 -57 22 c-59 21 -167 39 -167 27 0 -4 16
-52 35 -108 19 -55 43 -148 53 -207 l18 -106 36 -10 c20 -5 39 -13 42 -16 4
-3 2 -48 -4 -100 -10 -86 -14 -97 -52 -149 -66 -88 -132 -145 -196 -169 -149
-55 -342 -54 -577 4 -84 20 -104 29 -126 55 -39 46 -59 133 -59 256 0 90 5
123 35 230 58 207 200 521 266 592 27 29 36 32 90 32 71 0 155 -32 239 -91 62
-43 80 -48 80 -20 0 10 3 33 6 50 6 30 5 32 -19 26 -36 -9 -77 32 -77 77 0 54
11 62 94 66 76 4 152 -15 211 -54 50 -33 23 5 -60 85 -161 154 -297 222 -447
220 -46 0 -87 -2 -93 -4z"></path>
<path class="node" id="node7" d="M2134 1923 c-11 -26 -15 -60 -12 -114 4 -104 18 -119 107 -119 37 0
91 -6 121 -14 62 -16 70 -11 91 57 17 52 4 74 -77 129 -64 43 -179 98 -204 98
-6 0 -18 -17 -26 -37z m232 -128 c21 -32 15 -57 -18 -72 -32 -16 -52 -9 -66
22 -28 61 47 106 84 50z"></path>
<path class="node" id="node8" d="M1193 1885 c-51 -13 -116 -36 -145 -52 -43 -23 -55 -35 -66 -68 -11
-34 -11 -46 3 -81 25 -65 30 -67 131 -49 49 8 101 13 116 9 48 -10 101 62 119
163 6 30 8 66 5 79 -8 31 -39 31 -163 -1z m87 -96 c6 -11 10 -30 8 -42 -2 -18
-9 -22 -43 -22 -36 0 -40 3 -43 28 -2 16 2 35 9 43 17 21 57 17 69 -7z"></path>
<path class="node" id="node9" d="M1713 1900 c-65 -26 -247 -434 -286 -644 -14 -71 -13 -78 2 -84 22
-9 215 -9 271 0 25 4 65 10 90 14 25 3 92 15 150 25 58 11 152 23 209 26 l104
6 -7 69 c-14 158 -88 342 -177 441 -99 112 -269 182 -356 147z"></path>
<path class="node" id="node10" d="M2115 1169 c-224 -12 -391 -62 -572 -171 -107 -65 -112 -72 -83 -103
30 -32 91 -52 235 -75 259 -43 417 -14 535 96 52 49 91 113 114 192 11 40 12
54 3 57 -26 8 -108 10 -232 4z"></path>
<path class="node" id="node11" d="M1520 1121 l-105 -6 -3 -55 c-1 -30 1 -61 6 -67 6 -10 43 6 140 58
73 39 132 73 132 75 0 2 -15 3 -32 2 -18 -1 -80 -4 -138 -7z"></path>
</g>
</svg>